{
    "fluentMethods": true,
    "relationships": [],
    "fields": [
        {
            "fieldName": "titleId",
            "fieldType": "String",
            "fieldValidateRules": [
                "required",
                "minlength",
                "maxlength",
                "pattern"
            ],
            "fieldValidateRulesMinlength": "4",
            "fieldValidateRulesMaxlength": 4,
            "fieldValidateRulesPattern": "^[a-zA-Z0-9]*$"
        },
        {
            "fieldName": "titleName",
            "fieldType": "String",
            "fieldValidateRules": [
                "required",
                "maxlength"
            ],
            "fieldValidateRulesMaxlength": 50
        },
        {
          "fieldName": "status",
          "fieldType": "GameStatus",
          "fieldValues": "NEW,DRAFT,READY,ACTIVE,CLOSED",
          "fieldValidateRules": [
                "required"
            ]
        },
        {
            "fieldName": "version",
            "fieldType": "String",
            "fieldValidateRules": [
            ]
        },
        {
            "fieldName": "titleWebsite",
            "fieldType": "String",
            "fieldValidateRules": [
            ]
        },
        {
            "fieldName": "downloadUrl",
            "fieldType": "String",
            "fieldValidateRules": [
            ]
        },
        {
            "fieldName": "logoUrl",
            "fieldType": "String",
            "fieldValidateRules": [
            ]
        },
        {
            "fieldName": "createdAt",
            "fieldType": "Instant",
            "fieldValidateRules": [
                "required"
            ]
        },
        {
            "fieldName": "lastModifiedAt",
            "fieldType": "Instant",
            "fieldValidateRules": [
                "required"
            ]
        }
    ],
    "changelogDate": "20171031060304",
    "dto": "mapstruct",
    "service": "serviceImpl",
    "entityTableName": "pop_game",
    "jpaMetamodelFiltering": true,
    "pagination": "infinite-scroll"
}
